id,genotype,treatment,filename
WT.U1,WT,U,GSM507131.CEL.gz
WT.U2,WT,U,GSM507132.CEL.gz
WT.U3,WT,U,GSM507133.CEL.gz
WT.S1,WT,S,GSM507128.CEL.gz
WT.S2,WT,S,GSM507129.CEL.gz
MT.U1,Mu,U,GSM507137.CEL.gz
MT.U2,Mu,U,GSM507138.CEL.gz
MT.U3,Mu,U,GSM507139.CEL.gz
MT.S1,Mu,S,GSM507134.CEL.gz
MT.S2,Mu,S,GSM507135.CEL.gz
